<svg width="166" height="26" viewBox="0 0 166 26" fill="none" xmlns="http://www.w3.org/2000/svg">
<path d="M24 6.92383V19.0761C24 19.9911 23.1042 20.7333 22 20.7333H1.99999C0.89583 20.7333 0 19.9911 0 19.0761V6.92383C0 6.00891 0.89583 5.26665 1.99999 5.26665H22C23.1042 5.26665 24 6.00895 24 6.92383Z" fill="#0353A5"/>
<path d="M20.65 10.2381H19.3541C18.9542 10.2381 18.6499 10.3348 18.4791 10.6835L15.9915 15.603H17.7499C17.7499 15.603 18.0375 14.9402 18.0999 14.7987H20.2499C20.2998 14.9886 20.4499 15.603 20.4499 15.603H21.9999L20.65 10.2381ZM18.5832 13.7008C18.7208 13.3936 19.2499 12.1991 19.2499 12.1991C19.2416 12.2094 19.3875 11.8849 19.4708 11.6847L19.5874 12.1473C19.5874 12.1473 19.9041 13.4316 19.9749 13.7009H18.5832V13.7008Z" fill="white"/>
<path d="M7.21668 10.2381L5.57919 13.8977L5.39997 13.1554L4.81662 10.6903C4.72077 10.3486 4.42494 10.2519 4.05826 10.2381H1.36253L1.33331 10.3452C1.99165 10.4833 2.57918 10.6835 3.09163 10.9355L4.58334 15.5963H6.35413L8.98742 10.2382H7.21668V10.2381Z" fill="white"/>
<path d="M9.66244 10.2381L8.61661 15.6031H10.2875L11.3375 10.2381H9.66244Z" fill="white"/>
<path d="M14.7125 12.389C14.125 12.1439 13.7667 11.9781 13.7667 11.7261C13.775 11.4983 14.0708 11.2635 14.7292 11.2635C15.275 11.2531 15.675 11.3602 15.9749 11.4671L16.125 11.5259L16.3541 10.3659C16.0249 10.2588 15.5 10.138 14.8541 10.138C13.2 10.138 12.0375 10.8699 12.0292 11.9125C12.0166 12.6824 12.8624 13.1105 13.4958 13.3694C14.1416 13.6317 14.3624 13.8044 14.3624 14.0357C14.3541 14.3948 13.8374 14.5605 13.3582 14.5605C12.6916 14.5605 12.3332 14.4741 11.7875 14.274L11.5666 14.1876L11.3333 15.3925C11.7249 15.541 12.4499 15.6722 13.1999 15.6791C14.9583 15.6825 16.1041 14.9609 16.1166 13.8493C16.125 13.2383 15.675 12.7722 14.7125 12.389Z" fill="white"/>
<g clip-path="url(#clip0)">
<path d="M47.72 5.26665H26.28C25.5731 5.26665 25 5.83699 25 6.54053V18.9928C25 19.6963 25.5731 20.2666 26.28 20.2666H47.72C48.4269 20.2666 49 19.6963 49 18.9928V6.54053C49 5.83699 48.4269 5.26665 47.72 5.26665Z" fill="black"/>
<path d="M32.0762 18.6956V17.9042C32.0762 17.6007 31.8906 17.403 31.5859 17.403C31.4259 17.403 31.2547 17.4558 31.1354 17.6259C31.0426 17.4807 30.9114 17.403 30.7114 17.403C30.5603 17.3965 30.4161 17.4658 30.3274 17.5877V17.4284H30.0755V18.6947H30.3274V17.9702C30.3274 17.7472 30.4599 17.6405 30.6455 17.6405C30.8311 17.6405 30.937 17.7593 30.937 17.9702V18.6956H31.1888V17.9702C31.1888 17.7472 31.3213 17.6405 31.5069 17.6405C31.6925 17.6405 31.7984 17.7593 31.7984 17.9702V18.6956H32.0762ZM36.2112 17.4424H35.7472V17.0603H35.496V17.4424H35.2311V17.6654H35.496V18.2603C35.496 18.5504 35.6019 18.7221 35.92 18.7221C36.0405 18.7196 36.1586 18.6879 36.264 18.6297L36.1843 18.4068C36.1128 18.4513 36.0299 18.4742 35.9456 18.4727C35.8131 18.4727 35.7469 18.3934 35.7469 18.2616V17.6552H36.2109V17.444L36.2112 17.4424ZM38.5703 17.403C38.4307 17.3999 38.2998 17.47 38.2256 17.5877V17.4284H37.9738V18.6947H38.2256V17.9835C38.2256 17.7724 38.3315 17.6405 38.504 17.6405C38.5622 17.6429 38.62 17.6518 38.6762 17.667L38.7559 17.4294C38.6951 17.4141 38.6329 17.4053 38.5703 17.403ZM35.0051 17.5348C34.8727 17.4424 34.6871 17.403 34.4883 17.403C34.1703 17.403 33.9715 17.5482 33.9715 17.7988C33.9715 18.01 34.1175 18.1284 34.3955 18.1682L34.528 18.1813C34.6739 18.2077 34.7667 18.2606 34.7667 18.3265C34.7667 18.4189 34.6608 18.4858 34.4618 18.4858C34.3098 18.4889 34.1609 18.4426 34.0378 18.3539L33.9053 18.5517C34.0909 18.6835 34.3162 18.7109 34.4493 18.7109C34.8205 18.7109 35.0192 18.5396 35.0192 18.302C35.0192 18.0791 34.8592 17.9724 34.5818 17.9326L34.4493 17.9195C34.3299 17.9065 34.2253 17.8666 34.2253 17.7877C34.2253 17.6953 34.3312 17.6284 34.4771 17.6284C34.6371 17.6284 34.7952 17.6944 34.8749 17.7338L35.0051 17.5348ZM38.8486 18.0625C38.8486 18.4447 39.1005 18.7221 39.5114 18.7221C39.697 18.7221 39.8295 18.6826 39.9619 18.5768L39.8295 18.3791C39.7357 18.4547 39.6189 18.4965 39.4983 18.4979C39.2743 18.4979 39.1005 18.3265 39.1005 18.0759C39.1005 17.8252 39.272 17.6552 39.4983 17.6552C39.6189 17.6565 39.7357 17.6984 39.8295 17.774L39.9619 17.5762C39.8295 17.4708 39.697 17.431 39.5114 17.431C39.1136 17.4045 38.8486 17.6816 38.8486 18.0641V18.0625ZM37.0727 17.403C36.7015 17.403 36.4496 17.6666 36.4496 18.0625C36.4496 18.4584 36.7146 18.7221 37.0989 18.7221C37.2859 18.726 37.4684 18.6655 37.6157 18.5507L37.4832 18.366C37.3767 18.4481 37.2467 18.4943 37.112 18.4979C36.9399 18.4979 36.7543 18.3924 36.728 18.1682H37.6691V18.0628C37.6691 17.667 37.4304 17.4033 37.0727 17.4033V17.403ZM37.0595 17.6405C37.2451 17.6405 37.3776 17.7593 37.3907 17.9571H36.7018C36.7415 17.7724 36.8618 17.6405 37.0595 17.6405ZM33.6269 18.0625V17.4294H33.3751V17.5886C33.2823 17.4698 33.1511 17.4039 32.9642 17.4039C32.6064 17.4039 32.3411 17.681 32.3411 18.0635C32.3411 18.4459 32.6061 18.723 32.9642 18.723C33.1498 18.723 33.2823 18.6571 33.3751 18.5383V18.6975H33.6269V18.0625ZM32.6064 18.0625C32.6064 17.8249 32.7523 17.6405 33.0042 17.6405C33.2429 17.6405 33.3882 17.8252 33.3882 18.0625C33.3882 18.3131 33.2282 18.4845 33.0042 18.4845C32.7523 18.4975 32.6064 18.2998 32.6064 18.0625ZM42.401 17.403C42.2614 17.3999 42.1305 17.47 42.0563 17.5877V17.4284H41.8045V18.6947H42.056V17.9835C42.056 17.7724 42.1619 17.6405 42.3344 17.6405C42.3926 17.6429 42.4504 17.6518 42.5066 17.667L42.5863 17.4294C42.5255 17.4141 42.4633 17.4053 42.4006 17.403H42.401ZM41.4202 18.0625V17.4294H41.1683V17.5886C41.0755 17.4698 40.9443 17.4039 40.7575 17.4039C40.3997 17.4039 40.1344 17.681 40.1344 18.0635C40.1344 18.4459 40.3994 18.723 40.7575 18.723C40.9431 18.723 41.0755 18.6571 41.1683 18.5383V18.6975H41.4202V18.0625ZM40.3997 18.0625C40.3997 17.8249 40.5456 17.6405 40.7975 17.6405C41.0362 17.6405 41.1815 17.8252 41.1815 18.0625C41.1815 18.3131 41.0215 18.4845 40.7975 18.4845C40.5456 18.4975 40.3997 18.2998 40.3997 18.0625ZM43.9783 18.0625V16.9281H43.7264V17.5877C43.6336 17.4689 43.5024 17.403 43.3155 17.403C42.9578 17.403 42.6925 17.68 42.6925 18.0625C42.6925 18.445 42.9575 18.7221 43.3155 18.7221C43.5011 18.7221 43.6336 18.6561 43.7264 18.5373V18.6966H43.9783V18.0625ZM42.9578 18.0625C42.9578 17.8249 43.1037 17.6405 43.3555 17.6405C43.5943 17.6405 43.7395 17.8252 43.7395 18.0625C43.7395 18.3131 43.5795 18.4845 43.3555 18.4845C43.1034 18.4979 42.9575 18.3001 42.9575 18.0625H42.9578Z" fill="white"/>
<path d="M39.3126 7.8268H34.7136V15.2924H39.3126V7.8268Z" fill="#FF5F00"/>
<path d="M35.1776 11.5596C35.1779 10.1046 35.8467 8.72961 36.9933 7.82682C35.0372 6.2962 32.2276 6.51869 30.5393 8.3379C28.851 10.1571 28.851 12.9621 30.5393 14.7813C32.2276 16.6006 35.0372 16.823 36.9933 15.2924C35.8467 14.3896 35.1779 13.0146 35.1776 11.5596Z" fill="#EB001B"/>
<path d="M44.7203 11.5596C44.7216 13.3764 43.6802 15.0344 42.0386 15.8289C40.3969 16.6235 38.4435 16.4152 37.0083 15.2924C38.1551 14.3899 38.824 13.0147 38.824 11.5596C38.824 10.1045 38.1551 8.7294 37.0083 7.82684C38.4435 6.70408 40.3969 6.49574 42.0386 7.29033C43.6802 8.08492 44.7216 9.74286 44.7203 11.5596Z" fill="#F79E1B"/>
</g>
<path fill-rule="evenodd" clip-rule="evenodd" d="M72.5 5.26665H51.5C50.675 5.26665 50 5.9095 50 6.69522V18.8381C50 19.6238 50.675 20.2666 51.5 20.2666H72.5C73.325 20.2666 74 19.6238 74 18.8381V6.69522C74 5.9095 73.325 5.26665 72.5 5.26665Z" fill="#3498D8"/>
<path fill-rule="evenodd" clip-rule="evenodd" d="M55.0249 12.9809H56.2249L55.6249 11.5523L55.0249 12.9809ZM71.7499 10.2666H68.6749L67.9249 11.0523L67.2499 10.2666H60.7249L60.1249 11.5523L59.5249 10.2666H56.8999V10.8381L56.5999 10.2666H54.3499L52.1749 15.2666H54.7999L55.0999 14.4809H55.8499L56.1499 15.2666H59.0749V14.6952L59.2999 15.2666H60.7999L61.0249 14.6238V15.2666H67.0249L67.7749 14.4809L68.4499 15.2666H71.5249L69.5749 12.7666L71.7499 10.2666ZM62.6749 14.5523H61.8499V11.7666L60.5749 14.5523H59.8249L58.5499 11.7666V14.5523H56.8249L56.5249 13.7666H54.7249L54.4249 14.5523H53.4499L55.0249 10.9809H56.2999L57.7249 14.3381V10.9809H59.1499L60.2749 13.4095L61.3249 10.9809H62.7499V14.5523H62.6749ZM70.0999 14.5523H68.9749L67.9999 13.3381L66.8749 14.5523H63.4999V10.9809H66.9499L67.9999 12.1238L69.1249 10.9809H70.1749L68.5249 12.7666L70.0999 14.5523ZM64.3249 11.6952V12.3381H66.1999V13.0523H64.3249V13.7666H66.4249L67.3999 12.6952L66.4999 11.6952H64.3249Z" fill="white"/>
<path d="M90.4496 6C91.8329 6 92.9579 6.48796 93.8245 7.46388C94.6912 8.4398 95.1245 10.0634 95.1245 12.3346V19.8669H91.5996V12.2015C91.5996 10.1255 90.8579 9.08745 89.3746 9.08745C88.608 9.08745 87.9913 9.38023 87.5247 9.96578C87.058 10.5336 86.8247 11.3321 86.8247 12.3612V19.8669H83.2998V12.2015C83.2998 10.1255 82.5498 9.08745 81.0498 9.08745C80.2832 9.08745 79.6665 9.3891 79.1999 9.9924C78.7499 10.5779 78.5249 11.3764 78.5249 12.3878V19.8669H75V6.1597H78.0749L78.3999 7.86312C78.8332 7.27757 79.3499 6.8251 79.9499 6.5057C80.5499 6.18631 81.2998 6.01774 82.1998 6C84.0331 6 85.3081 6.77186 86.0247 8.31559C86.4914 7.57034 87.0997 7.00254 87.8497 6.61217C88.6163 6.20406 89.483 6 90.4496 6Z" fill="url(#paint0_linear)"/>
<path d="M103.613 20C102.263 20 101.072 19.7161 100.038 19.1483C99.0216 18.5627 98.2299 17.7376 97.6633 16.673C97.1133 15.6084 96.8383 14.384 96.8383 13C96.8383 11.616 97.1133 10.3916 97.6633 9.327C98.2299 8.26236 99.0216 7.44613 100.038 6.87833C101.072 6.29278 102.263 6 103.613 6C104.963 6 106.146 6.29278 107.163 6.87833C108.196 7.44613 108.988 8.26236 109.538 9.327C110.105 10.3916 110.388 11.616 110.388 13C110.388 14.4018 110.105 15.635 109.538 16.6996C108.988 17.7465 108.196 18.5627 107.163 19.1483C106.146 19.7161 104.963 20 103.613 20ZM103.613 16.9392C104.596 16.9392 105.371 16.5754 105.938 15.8479C106.521 15.1204 106.813 14.1711 106.813 13C106.813 11.8289 106.521 10.8796 105.938 10.1521C105.371 9.42459 104.596 9.06084 103.613 9.06084C102.646 9.06084 101.872 9.42459 101.288 10.1521C100.722 10.8796 100.438 11.8289 100.438 13C100.438 14.1711 100.722 15.1204 101.288 15.8479C101.872 16.5754 102.646 16.9392 103.613 16.9392Z" fill="url(#paint1_linear)"/>
<path d="M118.603 20C117.253 20 116.061 19.7161 115.028 19.1483C114.011 18.5627 113.22 17.7376 112.653 16.673C112.103 15.6084 111.828 14.384 111.828 13C111.828 11.616 112.103 10.3916 112.653 9.327C113.22 8.26236 114.011 7.44613 115.028 6.87833C116.061 6.29278 117.253 6 118.603 6C119.953 6 121.136 6.29278 122.153 6.87833C123.186 7.44613 123.978 8.26236 124.528 9.327C125.094 10.3916 125.378 11.616 125.378 13C125.378 14.4018 125.094 15.635 124.528 16.6996C123.978 17.7465 123.186 18.5627 122.153 19.1483C121.136 19.7161 119.953 20 118.603 20ZM118.603 16.9392C119.586 16.9392 120.361 16.5754 120.928 15.8479C121.511 15.1204 121.803 14.1711 121.803 13C121.803 11.8289 121.511 10.8796 120.928 10.1521C120.361 9.42459 119.586 9.06084 118.603 9.06084C117.636 9.06084 116.861 9.42459 116.278 10.1521C115.711 10.8796 115.428 11.8289 115.428 13C115.428 14.1711 115.711 15.1204 116.278 15.8479C116.861 16.5754 117.636 16.9392 118.603 16.9392Z" fill="url(#paint2_linear)"/>
<path d="M134.693 6C136.193 6 137.426 6.49683 138.393 7.49049C139.359 8.48416 139.843 10.1255 139.843 12.4144V19.8403H136.318V12.6274C136.318 10.2674 135.451 9.08745 133.718 9.08745C132.801 9.08745 132.093 9.41572 131.593 10.0722C131.093 10.7288 130.843 11.6515 130.843 12.8403V19.8403H127.318V6.1597H130.393L130.718 7.86312C131.168 7.27757 131.71 6.8251 132.343 6.5057C132.976 6.16857 133.759 6 134.693 6Z" fill="url(#paint3_linear)"/>
<path d="M154.713 16.673V19.8403H152.913C151.297 19.8403 150.505 19.0951 150.538 17.6046C150.072 18.3853 149.497 18.9797 148.814 19.3878C148.13 19.7959 147.305 20 146.339 20C144.905 20 143.747 19.654 142.864 18.962C141.997 18.2522 141.564 17.2586 141.564 15.981C141.564 14.526 142.064 13.4081 143.064 12.6274C144.08 11.8289 145.547 11.4297 147.464 11.4297H150.014V10.7643C150.014 10.1432 149.797 9.65526 149.364 9.30038C148.93 8.92776 148.347 8.74144 147.614 8.74144C146.964 8.74144 146.43 8.89227 146.014 9.19392C145.597 9.49556 145.347 9.90368 145.264 10.4183H141.864C141.98 9.01648 142.564 7.93409 143.614 7.1711C144.664 6.39037 146.055 6 147.789 6C149.605 6 151.005 6.42586 151.988 7.27757C152.988 8.12928 153.488 9.36248 153.488 10.9772V15.7947C153.488 16.1318 153.555 16.3625 153.688 16.4867C153.822 16.6109 154.03 16.673 154.313 16.673H154.713ZM150.014 13.9316H147.439C146.705 13.9316 146.13 14.0913 145.714 14.4106C145.314 14.7123 145.114 15.147 145.114 15.7148C145.114 16.1939 145.28 16.5754 145.614 16.8593C145.964 17.1432 146.43 17.2852 147.014 17.2852C147.93 17.2852 148.655 17.0101 149.189 16.4601C149.722 15.8923 149.997 15.1381 150.014 14.1977V13.9316Z" fill="url(#paint4_linear)"/>
<path d="M155.827 17.7909C155.827 17.1343 156.027 16.602 156.427 16.1939C156.827 15.7681 157.335 15.5551 157.952 15.5551C158.552 15.5551 159.052 15.7681 159.452 16.1939C159.869 16.6198 160.077 17.1521 160.077 17.7909C160.077 18.4297 159.869 18.962 159.452 19.3878C159.052 19.7959 158.552 20 157.952 20C157.335 20 156.827 19.7959 156.427 19.3878C156.027 18.962 155.827 18.4297 155.827 17.7909Z" fill="url(#paint5_linear)"/>
<defs>
<linearGradient id="paint0_linear" x1="161.273" y1="28.9904" x2="108.09" y2="-27.4976" gradientUnits="userSpaceOnUse">
<stop stop-color="#FECA96"/>
<stop offset="0.396774" stop-color="#FF87D2"/>
<stop offset="1" stop-color="#9540FF"/>
</linearGradient>
<linearGradient id="paint1_linear" x1="161.273" y1="28.9904" x2="108.09" y2="-27.4976" gradientUnits="userSpaceOnUse">
<stop stop-color="#FECA96"/>
<stop offset="0.396774" stop-color="#FF87D2"/>
<stop offset="1" stop-color="#9540FF"/>
</linearGradient>
<linearGradient id="paint2_linear" x1="161.273" y1="28.9904" x2="108.09" y2="-27.4976" gradientUnits="userSpaceOnUse">
<stop stop-color="#FECA96"/>
<stop offset="0.396774" stop-color="#FF87D2"/>
<stop offset="1" stop-color="#9540FF"/>
</linearGradient>
<linearGradient id="paint3_linear" x1="161.273" y1="28.9904" x2="108.09" y2="-27.4976" gradientUnits="userSpaceOnUse">
<stop stop-color="#FECA96"/>
<stop offset="0.396774" stop-color="#FF87D2"/>
<stop offset="1" stop-color="#9540FF"/>
</linearGradient>
<linearGradient id="paint4_linear" x1="161.273" y1="28.9904" x2="108.09" y2="-27.4976" gradientUnits="userSpaceOnUse">
<stop stop-color="#FECA96"/>
<stop offset="0.396774" stop-color="#FF87D2"/>
<stop offset="1" stop-color="#9540FF"/>
</linearGradient>
<linearGradient id="paint5_linear" x1="161.273" y1="28.9904" x2="108.09" y2="-27.4976" gradientUnits="userSpaceOnUse">
<stop stop-color="#FECA96"/>
<stop offset="0.396774" stop-color="#FF87D2"/>
<stop offset="1" stop-color="#9540FF"/>
</linearGradient>
<clipPath id="clip0">
<rect width="24" height="15" fill="white" transform="translate(25 5.26665)"/>
</clipPath>
</defs>
</svg>
