<svg width="643" height="106" viewBox="0 0 643 106" fill="none" xmlns="http://www.w3.org/2000/svg">
<path d="M116.5 0.207763C126.939 0.207763 135.428 3.89507 141.967 11.2697C148.507 18.6443 151.862 31.912 151.862 49.0748V105.993H125.262V48.0691C125.262 32.3813 119.666 24.5374 108.473 24.5374C102.687 24.5374 98.0341 26.7498 94.5126 31.1745C90.9912 35.4652 89.2305 41.499 89.2305 49.2759V105.993H62.6311V48.0691C62.6311 32.3813 56.9717 24.5374 45.6528 24.5374C39.8676 24.5374 35.2143 26.8168 31.6929 31.3757C28.2972 35.8004 26.5994 41.8342 26.5994 49.477V105.993H0V1.20676H11.5H23L25.6561 15.2856C28.926 10.8608 32.7403 6.44267 37.2679 4.02915C41.7954 1.61564 47.4549 0.341845 54.2462 0.207763C68.0804 0.207763 77.7014 6.04042 83.1093 17.7057C86.6308 12.0742 91.2212 7.78351 96.8806 4.83367C102.666 1.74973 109.206 0.207763 116.5 0.207763Z" fill="url(#paint0_linear)"/>
<path d="M215.918 106C205.731 106 196.739 103.855 188.941 99.564C181.27 95.1392 175.296 88.9043 171.02 80.8593C166.869 72.8142 164.794 63.5625 164.794 53.1039C164.794 42.6454 166.869 33.3936 171.02 25.3485C175.296 17.3035 181.27 11.1356 188.941 6.84492C196.739 2.42015 205.731 0.207763 215.918 0.207763C226.105 0.207763 235.034 2.42015 242.706 6.84492C250.503 11.1356 256.477 17.3035 260.627 25.3485C264.903 33.3936 267.042 42.6454 267.042 53.1039C267.042 63.6965 264.903 73.0154 260.627 81.0604C256.477 88.9713 250.503 95.1392 242.706 99.564C235.034 103.855 226.105 106 215.918 106ZM215.918 82.8705C223.338 82.8705 229.186 80.1218 233.462 74.6244C237.864 69.1269 240.065 61.9534 240.065 53.1039C240.065 44.2544 237.864 37.0809 233.462 31.5834C229.186 26.086 223.338 23.3372 215.918 23.3372C208.624 23.3372 202.775 26.086 198.374 31.5834C194.098 37.0809 191.96 44.2544 191.96 53.1039C191.96 61.9534 194.098 69.1269 198.374 74.6244C202.775 80.1218 208.624 82.8705 215.918 82.8705Z" fill="url(#paint1_linear)"/>
<path d="M329.033 106C318.846 106 309.854 103.855 302.056 99.564C294.385 95.1392 288.411 88.9043 284.135 80.8593C279.985 72.8142 277.909 63.5625 277.909 53.1039C277.909 42.6454 279.985 33.3936 284.135 25.3485C288.411 17.3035 294.385 11.1356 302.056 6.84492C309.854 2.42015 318.846 0.207763 329.033 0.207763C339.22 0.207763 348.149 2.42015 355.821 6.84492C363.618 11.1356 369.592 17.3035 373.743 25.3485C378.019 33.3936 380.157 42.6454 380.157 53.1039C380.157 63.6965 378.019 73.0154 373.743 81.0604C369.592 88.9713 363.618 95.1392 355.821 99.564C348.149 103.855 339.22 106 329.033 106ZM329.033 82.8705C336.453 82.8705 342.301 80.1218 346.577 74.6244C350.979 69.1269 353.18 61.9534 353.18 53.1039C353.18 44.2544 350.979 37.0809 346.577 31.5834C342.301 26.086 336.453 23.3372 329.033 23.3372C321.739 23.3372 315.891 26.086 311.489 31.5834C307.213 37.0809 305.075 44.2544 305.075 53.1039C305.075 61.9534 307.213 69.1269 311.489 74.6244C315.891 80.1218 321.739 82.8705 329.033 82.8705Z" fill="url(#paint2_linear)"/>
<path d="M450.449 0C461.767 0 471.074 3.75435 478.368 11.2631C485.663 18.7718 489.31 32.3813 489.31 49.6781V106H462.711V51.2871C462.711 33.454 456.171 24.5374 443.091 24.5374C436.174 24.5374 430.829 27.0179 427.056 31.979C423.283 36.9402 421.397 43.9125 421.397 52.8962V106H394.797V1.20676H418.001L420.454 14.0788C423.849 9.65405 427.937 6.23491 432.716 3.82139C437.495 1.2738 443.406 0 450.449 0Z" fill="url(#paint3_linear)"/>
<path d="M601.526 80.8593V106H588C575.801 106 569.77 99.1617 570.022 87.8987C566.5 93.7984 562.162 98.2902 557.005 101.374C551.849 104.458 545.623 106 538.329 106C527.513 106 518.772 103.385 512.107 98.1561C505.567 92.7928 502.297 85.284 502.297 75.63C502.297 64.6351 506.07 56.1878 513.616 50.2881C521.288 44.2544 532.355 41.2375 546.818 41.2375H566.06V36.2093C566.06 31.5164 564.425 27.8291 561.156 25.1474C557.886 22.3316 553.484 20.9237 547.95 20.9237C543.045 20.9237 539.021 22.0635 535.877 24.3429C532.732 26.6223 530.846 29.7062 530.217 33.5947H504.561C505.441 23.002 509.843 14.8229 517.766 9.05731C525.69 3.15761 536.191 0.207763 549.271 0.207763C562.979 0.207763 573.543 3.42578 580.964 9.86181C588.509 16.2978 592.282 25.6167 592.282 37.8183V74.2221C592.282 76.7697 592.785 78.5128 593.792 79.4514C594.798 80.39 596.37 80.8593 598.508 80.8593H601.526ZM566.06 60.1433H546.63C541.096 60.1433 536.757 61.3501 533.613 63.7636C530.594 66.043 529.085 69.328 529.085 73.6187C529.085 77.239 530.343 80.1218 532.858 82.2672C535.499 84.4125 539.021 85.4852 543.422 85.4852C550.34 85.4852 555.81 83.4069 559.835 79.2503C563.859 74.9596 565.935 69.261 566.06 62.1546V60.1433Z" fill="url(#paint4_linear)"/>
<path d="M609.93 89.3066C609.93 84.3454 611.439 80.3229 614.457 77.239C617.476 74.021 621.312 72.412 625.965 72.412C630.492 72.412 635.14 74.021 638.284 77.239C641.428 80.457 643 84.4795 643 89.3066C643 94.1336 641.428 98.1561 638.284 101.374C635.265 104.458 630.492 106 625.965 106C621.312 106 617.476 104.458 614.457 101.374C611.439 98.1561 609.93 94.1336 609.93 89.3066Z" fill="url(#paint5_linear)"/>
<defs>
<linearGradient id="paint0_linear" x1="651.022" y1="173.937" x2="249.112" y2="-252.363" gradientUnits="userSpaceOnUse">
<stop stop-color="#FECA96"/>
<stop offset="0.396774" stop-color="#FF87D2"/>
<stop offset="1" stop-color="#9540FF"/>
</linearGradient>
<linearGradient id="paint1_linear" x1="651.022" y1="173.937" x2="249.112" y2="-252.363" gradientUnits="userSpaceOnUse">
<stop stop-color="#FECA96"/>
<stop offset="0.396774" stop-color="#FF87D2"/>
<stop offset="1" stop-color="#9540FF"/>
</linearGradient>
<linearGradient id="paint2_linear" x1="651.022" y1="173.937" x2="249.112" y2="-252.363" gradientUnits="userSpaceOnUse">
<stop stop-color="#FECA96"/>
<stop offset="0.396774" stop-color="#FF87D2"/>
<stop offset="1" stop-color="#9540FF"/>
</linearGradient>
<linearGradient id="paint3_linear" x1="651.022" y1="173.937" x2="249.112" y2="-252.363" gradientUnits="userSpaceOnUse">
<stop stop-color="#FECA96"/>
<stop offset="0.396774" stop-color="#FF87D2"/>
<stop offset="1" stop-color="#9540FF"/>
</linearGradient>
<linearGradient id="paint4_linear" x1="651.022" y1="173.937" x2="249.112" y2="-252.363" gradientUnits="userSpaceOnUse">
<stop stop-color="#FECA96"/>
<stop offset="0.396774" stop-color="#FF87D2"/>
<stop offset="1" stop-color="#9540FF"/>
</linearGradient>
<linearGradient id="paint5_linear" x1="651.022" y1="173.937" x2="249.112" y2="-252.363" gradientUnits="userSpaceOnUse">
<stop stop-color="#FECA96"/>
<stop offset="0.396774" stop-color="#FF87D2"/>
<stop offset="1" stop-color="#9540FF"/>
</linearGradient>
</defs>
</svg>
